-------------------------------------------------------------------------------
Test set: com.lrf.ThirdAssignmentApplicationTests
-------------------------------------------------------------------------------
Tests run: 1, Failures: 0, Errors: 0, Skipped: 0, Time elapsed: 7.609 s - in com.lrf.ThirdAssignmentApplicationTests
