/mnt/d/ilario/Documents/workspace-spring-tool-suite-4-4.8.1.RELEASE/assignment_three/src/main/java/com/lrf/controllers/CantinaProduttriceController.java
/mnt/d/ilario/Documents/workspace-spring-tool-suite-4-4.8.1.RELEASE/assignment_three/src/main/java/com/lrf/repository/ProdottoRepository.java
/mnt/d/ilario/Documents/workspace-spring-tool-suite-4-4.8.1.RELEASE/assignment_three/src/main/java/com/lrf/domain/Regione.java
/mnt/d/ilario/Documents/workspace-spring-tool-suite-4-4.8.1.RELEASE/assignment_three/src/main/java/com/lrf/config/WebMvcConfig.java
/mnt/d/ilario/Documents/workspace-spring-tool-suite-4-4.8.1.RELEASE/assignment_three/src/main/java/com/lrf/ThirdAssignmentApplication.java
/mnt/d/ilario/Documents/workspace-spring-tool-suite-4-4.8.1.RELEASE/assignment_three/src/main/java/com/lrf/controllers/RegioneController.java
/mnt/d/ilario/Documents/workspace-spring-tool-suite-4-4.8.1.RELEASE/assignment_three/src/main/java/com/lrf/domain/TipologiaGrappa.java
/mnt/d/ilario/Documents/workspace-spring-tool-suite-4-4.8.1.RELEASE/assignment_three/src/main/java/com/lrf/domain/Grappa.java
/mnt/d/ilario/Documents/workspace-spring-tool-suite-4-4.8.1.RELEASE/assignment_three/src/main/java/com/lrf/repository/CantinaProduttriceRepository.java
/mnt/d/ilario/Documents/workspace-spring-tool-suite-4-4.8.1.RELEASE/assignment_three/src/main/java/com/lrf/domain/Vino.java
/mnt/d/ilario/Documents/workspace-spring-tool-suite-4-4.8.1.RELEASE/assignment_three/src/main/java/com/lrf/domain/Prodotto.java
/mnt/d/ilario/Documents/workspace-spring-tool-suite-4-4.8.1.RELEASE/assignment_three/src/main/java/com/lrf/service/ProdottoService.java
/mnt/d/ilario/Documents/workspace-spring-tool-suite-4-4.8.1.RELEASE/assignment_three/src/main/java/com/lrf/config/SecurityConfig.java
/mnt/d/ilario/Documents/workspace-spring-tool-suite-4-4.8.1.RELEASE/assignment_three/src/main/java/com/lrf/service/UtenteService.java
/mnt/d/ilario/Documents/workspace-spring-tool-suite-4-4.8.1.RELEASE/assignment_three/src/main/java/com/lrf/repository/VinoRepository.java
/mnt/d/ilario/Documents/workspace-spring-tool-suite-4-4.8.1.RELEASE/assignment_three/src/main/java/com/lrf/controllers/UtenteController.java
/mnt/d/ilario/Documents/workspace-spring-tool-suite-4-4.8.1.RELEASE/assignment_three/src/main/java/com/lrf/domain/LoginRequest.java
/mnt/d/ilario/Documents/workspace-spring-tool-suite-4-4.8.1.RELEASE/assignment_three/src/main/java/com/lrf/repository/UtenteRepository.java
/mnt/d/ilario/Documents/workspace-spring-tool-suite-4-4.8.1.RELEASE/assignment_three/src/main/java/com/lrf/controllers/AuthController.java
/mnt/d/ilario/Documents/workspace-spring-tool-suite-4-4.8.1.RELEASE/assignment_three/src/main/java/com/lrf/domain/UtenteVinoId.java
/mnt/d/ilario/Documents/workspace-spring-tool-suite-4-4.8.1.RELEASE/assignment_three/src/main/java/com/lrf/repository/UtenteVinoRepository.java
/mnt/d/ilario/Documents/workspace-spring-tool-suite-4-4.8.1.RELEASE/assignment_three/src/main/java/com/lrf/repository/UtenteGrappaRepository.java
/mnt/d/ilario/Documents/workspace-spring-tool-suite-4-4.8.1.RELEASE/assignment_three/src/main/java/com/lrf/domain/TipologiaVino.java
/mnt/d/ilario/Documents/workspace-spring-tool-suite-4-4.8.1.RELEASE/assignment_three/src/main/java/com/lrf/controllers/VinoController.java
/mnt/d/ilario/Documents/workspace-spring-tool-suite-4-4.8.1.RELEASE/assignment_three/src/main/java/com/lrf/repository/RegioneRepository.java
/mnt/d/ilario/Documents/workspace-spring-tool-suite-4-4.8.1.RELEASE/assignment_three/src/main/java/com/lrf/service/CantinaProduttriceService.java
/mnt/d/ilario/Documents/workspace-spring-tool-suite-4-4.8.1.RELEASE/assignment_three/src/main/java/com/lrf/request/WrapperProdottoUtente.java
/mnt/d/ilario/Documents/workspace-spring-tool-suite-4-4.8.1.RELEASE/assignment_three/src/main/java/com/lrf/repository/GrappaRepository.java
/mnt/d/ilario/Documents/workspace-spring-tool-suite-4-4.8.1.RELEASE/assignment_three/src/main/java/com/lrf/domain/UtenteGrappa.java
/mnt/d/ilario/Documents/workspace-spring-tool-suite-4-4.8.1.RELEASE/assignment_three/src/main/java/com/lrf/controllers/GrappaController.java
/mnt/d/ilario/Documents/workspace-spring-tool-suite-4-4.8.1.RELEASE/assignment_three/src/main/java/com/lrf/domain/CantinaProduttrice.java
/mnt/d/ilario/Documents/workspace-spring-tool-suite-4-4.8.1.RELEASE/assignment_three/src/main/java/com/lrf/domain/UtenteVino.java
/mnt/d/ilario/Documents/workspace-spring-tool-suite-4-4.8.1.RELEASE/assignment_three/src/main/java/com/lrf/domain/UtenteGrappaId.java
/mnt/d/ilario/Documents/workspace-spring-tool-suite-4-4.8.1.RELEASE/assignment_three/src/main/java/com/lrf/domain/Utente.java
